{
  "unit": "affix",
  "schema": "unimedfortaleza",
  "name": "header_bronze",
  "dateRefMode": "today",
  "description": "Arquivo de demonstrativo da operadora Unimedfortaleza",
  "fieldDelimiter": ";",
  "headerRegex": "(?i)^Unimed:\\s*\\d+;Empresa:\\s*\\s*\\d+.*",
  "quote": "\"",
  "skipLines": 5,
  "startRegex": "(?i)^Unimed:\\s*\\d+.*",
  "version": 2,
  "replacements": [
    {
      "search": "(?i)^(?!Unimed:\\s*\\d+;Empresa:\\s*\\s*\\d+|.[A-Z ÔÃÕÓÁÉ]+;\\d+;[\\d -]+;).*",
      "replace": ""
    }
  ],
  "fields": {
    "2": {
      "type": "FieldString",
      "name": "contrato",
      "replacements": [
        {
          "search": "(?i)^.*Contrato:\\s*(\\d+).*",
          "replace": "$1"
        }
      ]
    },
    "3": {
            "type": "FieldDate",
            "name": "dt_competencia",
            "mask": "MM/yyyy",
            "replacements": [
                {
                "search": "(?i)^compet.ncia.{0,1}\\s*([1-9]\/\\d{4}).*",
                "replace": "0$1"
                },
                {
                "search": "(?i)^compet.ncia.{0,1}\\s*(\\d{2}\/\\d{4}).*",
                "replace": "$1"
                }
            ]
        }
  },
  "children": [
    {
      "name": "mensalidade_bronze",
      "description": "",
      "startRegex": "(?i)^.[A-Z ÔÃÕÓÁÉ]+;\\d+;[\\d -]+",
      "keyFieldAlt": "0,1,2",
      "fields": {
        "0": {
          "type": "FieldString",
          "name": "nome_beneficiario_dummy"
        },
        "2": {
          "type": "FieldString",
          "name": "marca_otica",
          "replacements": [
            {
              "search": "^0(\\d{2})\\s00(\\d+)\\-(\\d)",
              "replace": "$1$2$3"
            }
          ]
        },
        "3": {
          "type": "FieldString",
          "name": "nome_beneficiario"
        },
        "4": {
          "type": "FieldDate",
          "mask": "dd/MM/yyyy",
          "name": "dt_nascimento"
        },
        "6": {
          "type": "FieldString",
          "name": "cpf",
          "replacements": [
            {
              "search": "\\.|\\/|\\-",
              "replace": ""
            }
          ]
        },
        "7": {
          "type": "FieldDate",
          "mask": "dd/MM/yyyy",
          "name": "dt_inclusao"
        },
        "8": {
          "type": "FieldString",
          "name": "plano"
        },
        "10": {
          "type": "FieldString",
          "name": "tipo_beneficiario"
        },
        "14": {
          "name": "valor",
          "type": "FieldDecimal",
          "mask": "##,##",
          "plane": true
        },
        "11": {
          "name": "rubrica",
          "type": "FieldString"
        }
      }
    }
  ]
}
